2017-09-06 23:57:05.979000       Page with JAVA tag loaded with URL : https://stackoverflow.com/questions/tagged/java
2017-09-06 23:57:07.528000       Scroll Event
2017-09-06 23:57:07.536000       Scroll Event
2017-09-06 23:57:07.542000       Scroll Event
2017-09-06 23:57:07.557000       Scroll Event
2017-09-06 23:57:07.574000       Scroll Event
2017-09-06 23:57:07.592000       Scroll Event
2017-09-06 23:57:07.832000       Scroll Event
2017-09-06 23:57:07.840000       Scroll Event
2017-09-06 23:57:07.844000       Scroll Event
2017-09-06 23:57:07.862000       Scroll Event
2017-09-06 23:57:07.879000       Scroll Event
2017-09-06 23:57:07.895000       Scroll Event
2017-09-06 23:57:08.136000       Scroll Event
2017-09-06 23:57:08.146000       Scroll Event
2017-09-06 23:57:08.149000       Scroll Event
2017-09-06 23:57:08.166000       Scroll Event
2017-09-06 23:57:08.181000       Scroll Event
2017-09-06 23:57:08.198000       Scroll Event
2017-09-06 23:57:08.438000       Scroll Event
2017-09-06 23:57:08.450000       Scroll Event
2017-09-06 23:57:08.454000       Scroll Event
2017-09-06 23:57:08.469000       Scroll Event
2017-09-06 23:57:08.485000       Scroll Event
2017-09-06 23:57:08.501000       Scroll Event
2017-09-06 23:57:08.748000       Scroll Event
2017-09-06 23:57:08.755000       Scroll Event
2017-09-06 23:57:08.757000       Scroll Event
2017-09-06 23:57:08.772000       Scroll Event
2017-09-06 23:57:08.789000       Scroll Event
2017-09-06 23:57:08.805000       Scroll Event
2017-09-06 23:57:09.054000       Scroll Event
2017-09-06 23:57:09.058000       Scroll Event
2017-09-06 23:57:09.061000       Scroll Event
2017-09-06 23:57:09.076000       Scroll Event
2017-09-06 23:57:09.230000       Job search area click
2017-09-06 23:57:11.717000       Job search area click
2017-09-06 23:57:15.621000       Page with JAVA tag loaded with URL : https://stackoverflow.com/questions/46089699/queue-in-activemq-is-not-consuming-more-than-number-of-consumers
2017-09-06 23:57:16.849000       Share stackoverflow page clicked
2017-09-06 23:57:17.923000       Upvote Event
2017-09-06 23:57:19.183000       Downvote Event
2017-09-06 23:57:20.856000       Ask a question button clicked
2017-09-06 23:57:21.162000       Page Navigated away from : https://stackoverflow.com/questions/46089699/queue-in-activemq-is-not-consuming-more-than-number-of-consumers
2017-09-06 23:57:25.116000       Page with JAVA tag loaded with URL : https://stackoverflow.com/questions/46089699/queue-in-activemq-is-not-consuming-more-than-number-of-consumers
2017-09-06 23:57:25.442000       Scroll Event
2017-09-06 23:57:25.459000       Scroll Event
2017-09-06 23:57:25.475000       Scroll Event
2017-09-06 23:57:25.493000       Scroll Event
2017-09-06 23:57:25.512000       Scroll Event
2017-09-06 23:57:25.526000       Scroll Event
2017-09-06 23:57:25.746000       Scroll Event
2017-09-06 23:57:25.762000       Scroll Event
2017-09-06 23:57:25.778000       Scroll Event
2017-09-06 23:57:25.796000       Scroll Event
2017-09-06 23:57:25.816000       Scroll Event
2017-09-06 23:57:25.830000       Scroll Event
2017-09-06 23:57:26.037000       Scroll Event
2017-09-06 23:57:26.066000       Scroll Event
2017-09-06 23:57:26.082000       Scroll Event
2017-09-06 23:57:26.100000       Scroll Event
2017-09-06 23:57:26.119000       Scroll Event
2017-09-06 23:57:26.135000       Scroll Event
2017-09-06 23:57:26.355000       Scroll Event
2017-09-06 23:57:26.369000       Scroll Event
2017-09-06 23:57:26.385000       Scroll Event
2017-09-06 23:57:26.404000       Scroll Event
2017-09-06 23:57:26.424000       Scroll Event
2017-09-06 23:57:26.440000       Scroll Event
2017-09-06 23:57:26.662000       Scroll Event
2017-09-06 23:57:26.672000       Scroll Event
2017-09-06 23:57:26.690000       Scroll Event
2017-09-06 23:57:26.710000       Scroll Event
2017-09-06 23:57:26.727000       Scroll Event
2017-09-06 23:57:26.743000       Scroll Event
2017-09-06 23:57:26.966000       Scroll Event
2017-09-06 23:57:26.978000       Scroll Event
2017-09-06 23:57:26.993000       Scroll Event
2017-09-06 23:57:27.013000       Scroll Event
2017-09-06 23:57:27.030000       Scroll Event
2017-09-06 23:57:27.047000       Scroll Event
2017-09-06 23:57:27.269000       Scroll Event
2017-09-06 23:57:27.281000       Scroll Event
2017-09-06 23:57:27.297000       Scroll Event
2017-09-06 23:57:27.317000       Scroll Event
2017-09-06 23:57:27.334000       Scroll Event
2017-09-06 23:57:27.350000       Scroll Event
2017-09-06 23:57:27.569000       Scroll Event
2017-09-06 23:57:27.585000       Scroll Event
2017-09-06 23:57:27.601000       Scroll Event
2017-09-06 23:57:27.621000       Scroll Event
2017-09-06 23:57:27.642000       Scroll Event
2017-09-06 23:57:27.658000       Scroll Event
2017-09-06 23:57:27.877000       Scroll Event
2017-09-06 23:57:27.891000       Scroll Event
2017-09-06 23:57:27.906000       Scroll Event
2017-09-06 23:57:27.925000       Scroll Event
2017-09-06 23:57:27.947000       Scroll Event
2017-09-06 23:57:27.964000       Scroll Event
2017-09-06 23:57:28.181000       Scroll Event
2017-09-06 23:57:28.196000       Scroll Event
2017-09-06 23:57:28.212000       Scroll Event
2017-09-06 23:57:28.229000       Scroll Event
2017-09-06 23:57:28.252000       Scroll Event
2017-09-06 23:57:28.267000       Scroll Event
2017-09-06 23:57:28.485000       Scroll Event
2017-09-06 23:57:28.501000       Scroll Event
2017-09-06 23:57:28.517000       Scroll Event
2017-09-06 23:57:28.532000       Scroll Event
2017-09-06 23:57:28.555000       Scroll Event
2017-09-06 23:57:28.570000       Scroll Event
2017-09-06 23:57:28.791000       Scroll Event
2017-09-06 23:57:28.805000       Scroll Event
2017-09-06 23:57:28.821000       Scroll Event
2017-09-06 23:57:28.836000       Scroll Event
2017-09-06 23:57:28.860000       Scroll Event
2017-09-06 23:57:28.873000       Scroll Event
2017-09-06 23:57:29.094000       Scroll Event
2017-09-06 23:57:29.109000       Scroll Event
2017-09-06 23:57:29.124000       Scroll Event
2017-09-06 23:57:29.139000       Scroll Event
2017-09-06 23:57:29.163000       Scroll Event
2017-09-06 23:57:29.177000       Scroll Event
2017-09-06 23:57:29.398000       Scroll Event
2017-09-06 23:57:30.883000       Page Navigated away from : https://stackoverflow.com/questions/46089699/queue-in-activemq-is-not-consuming-more-than-number-of-consumers
2017-09-06 23:57:31.766000       Page with JAVA tag loaded with URL : https://stackoverflow.com/questions/tagged/java
2017-09-06 23:57:32.647000       Scroll Event
2017-09-06 23:57:32.993000       Scroll Event
2017-09-06 23:57:32.993000       Scroll Event
2017-09-06 23:57:33.028000       Scroll Event
2017-09-06 23:57:33.044000       Scroll Event
2017-09-06 23:57:33.044000       Scroll Event
2017-09-06 23:57:33.067000       Scroll Event
2017-09-06 23:57:33.305000       Scroll Event
2017-09-06 23:57:33.317000       Scroll Event
2017-09-06 23:57:33.334000       Scroll Event
2017-09-06 23:57:33.451000       Scroll Event
2017-09-06 23:57:33.459000       Scroll Event
2017-09-06 23:57:33.478000       Scroll Event
2017-09-06 23:57:33.608000       Scroll Event
2017-09-06 23:57:33.626000       Scroll Event
2017-09-06 23:57:33.647000       Scroll Event
2017-09-06 23:57:33.759000       Scroll Event
2017-09-06 23:57:33.769000       Scroll Event
2017-09-06 23:57:33.790000       Scroll Event
2017-09-06 23:57:33.933000       Scroll Event
2017-09-06 23:57:33.940000       Scroll Event
2017-09-06 23:57:33.956000       Scroll Event
2017-09-06 23:57:34.076000       Scroll Event
2017-09-06 23:57:34.076000       Scroll Event
2017-09-06 23:57:34.091000       Scroll Event
2017-09-06 23:57:34.244000       Scroll Event
2017-09-06 23:57:34.252000       Scroll Event
2017-09-06 23:57:34.264000       Scroll Event
2017-09-06 23:57:34.388000       Scroll Event
2017-09-06 23:57:34.396000       Scroll Event
2017-09-06 23:57:34.407000       Scroll Event
2017-09-06 23:57:34.552000       Scroll Event
2017-09-06 23:57:34.559000       Scroll Event
2017-09-06 23:57:34.582000       Scroll Event
2017-09-06 23:57:34.693000       Scroll Event
2017-09-06 23:57:34.700000       Scroll Event
2017-09-06 23:57:34.711000       Scroll Event
2017-09-06 23:57:34.861000       Scroll Event
2017-09-06 23:57:34.861000       Scroll Event
2017-09-06 23:57:34.890000       Scroll Event
2017-09-06 23:57:35.001000       Scroll Event
2017-09-06 23:57:35.012000       Scroll Event
2017-09-06 23:57:35.024000       Scroll Event
2017-09-06 23:57:35.175000       Scroll Event
2017-09-06 23:57:35.181000       Scroll Event
2017-09-06 23:57:35.198000       Scroll Event
2017-09-06 23:57:40.175000       Add to favourite tags clicked
2017-09-06 23:57:45.009000       Scroll Event
2017-09-06 23:57:45.030000       Scroll Event
2017-09-06 23:57:45.048000       Scroll Event
2017-09-06 23:57:45.064000       Scroll Event
2017-09-06 23:57:45.080000       Scroll Event
2017-09-06 23:57:45.098000       Scroll Event
2017-09-06 23:57:45.323000       Scroll Event
2017-09-06 23:57:45.339000       Scroll Event
2017-09-06 23:57:45.356000       Scroll Event
2017-09-06 23:57:46.198000       Scroll Event
2017-09-06 23:57:46.518000       Scroll Event
2017-09-06 23:57:46.534000       Scroll Event
2017-09-06 23:57:46.548000       Scroll Event
2017-09-06 23:57:46.566000       Scroll Event
2017-09-06 23:57:46.581000       Scroll Event
2017-09-06 23:57:46.600000       Scroll Event
2017-09-06 23:57:46.821000       Scroll Event
2017-09-06 23:57:46.838000       Scroll Event
2017-09-06 23:57:46.852000       Scroll Event
2017-09-06 23:57:46.869000       Scroll Event
2017-09-06 23:57:46.884000       Scroll Event
2017-09-06 23:57:47.014000       Scroll Event
2017-09-06 23:57:47.125000       Scroll Event
2017-09-06 23:57:47.140000       Scroll Event
2017-09-06 23:57:47.158000       Scroll Event
2017-09-06 23:57:47.179000       Scroll Event
2017-09-06 23:57:47.187000       Scroll Event
2017-09-06 23:57:47.322000       Scroll Event
2017-09-06 23:57:47.433000       Scroll Event
2017-09-06 23:57:47.447000       Scroll Event
2017-09-06 23:57:47.463000       Scroll Event
2017-09-06 23:57:47.482000       Scroll Event
2017-09-06 23:57:47.491000       Scroll Event
2017-09-06 23:57:47.628000       Scroll Event
2017-09-06 23:57:47.753000       Scroll Event
2017-09-06 23:57:47.756000       Scroll Event
2017-09-06 23:57:47.779000       Scroll Event
2017-09-06 23:57:47.794000       Scroll Event
2017-09-06 23:57:47.799000       Scroll Event
2017-09-06 23:57:47.939000       Scroll Event
2017-09-06 23:57:48.063000       Scroll Event
2017-09-06 23:57:48.064000       Scroll Event
2017-09-06 23:57:48.095000       Scroll Event
2017-09-06 23:57:48.095000       Scroll Event
2017-09-06 23:57:48.110000       Scroll Event
2017-09-06 23:57:48.244000       Scroll Event
2017-09-06 23:57:48.368000       Scroll Event
2017-09-06 23:57:48.372000       Scroll Event
2017-09-06 23:57:48.404000       Scroll Event
2017-09-06 23:57:48.411000       Scroll Event
2017-09-06 23:57:48.417000       Scroll Event
2017-09-06 23:57:48.551000       Scroll Event
2017-09-06 23:57:48.677000       Scroll Event
2017-09-06 23:57:48.683000       Scroll Event
2017-09-06 23:57:48.710000       Scroll Event
2017-09-06 23:57:48.717000       Scroll Event
2017-09-06 23:57:48.795000       Page Navigated away from : https://stackoverflow.com/questions/tagged/java
2017-09-06 23:57:49.839000       Page with JAVA tag loaded with URL : https://stackoverflow.com/questions/46089636/how-to-change-the-height-and-width-of-button-and-add-buttons-through-drawable-ca
2017-09-06 23:57:51.904000       Scroll Event
2017-09-06 23:57:52.221000       Scroll Event
2017-09-06 23:57:52.237000       Scroll Event
2017-09-06 23:57:52.256000       Scroll Event
2017-09-06 23:57:52.272000       Scroll Event
2017-09-06 23:57:52.288000       Scroll Event
2017-09-06 23:57:52.306000       Scroll Event
2017-09-06 23:57:52.525000       Scroll Event
2017-09-06 23:57:52.541000       Scroll Event
2017-09-06 23:57:52.559000       Scroll Event
2017-09-06 23:57:52.575000       Scroll Event
2017-09-06 23:57:52.592000       Scroll Event
2017-09-06 23:57:52.610000       Scroll Event
2017-09-06 23:57:52.833000       Scroll Event
2017-09-06 23:57:52.849000       Scroll Event
2017-09-06 23:57:52.863000       Scroll Event
2017-09-06 23:57:52.878000       Scroll Event
2017-09-06 23:57:52.896000       Scroll Event
2017-09-06 23:57:52.914000       Scroll Event
2017-09-06 23:57:53.138000       Scroll Event
2017-09-06 23:57:53.153000       Scroll Event
2017-09-06 23:57:53.168000       Scroll Event
2017-09-06 23:57:53.182000       Scroll Event
2017-09-06 23:57:53.200000       Scroll Event
2017-09-06 23:57:53.217000       Scroll Event
2017-09-06 23:57:53.441000       Scroll Event
2017-09-06 23:57:53.458000       Scroll Event
2017-09-06 23:57:53.471000       Scroll Event
2017-09-06 23:57:53.486000       Scroll Event
2017-09-06 23:57:53.503000       Scroll Event
2017-09-06 23:57:53.522000       Scroll Event
2017-09-06 23:57:53.744000       Scroll Event
2017-09-06 23:57:53.761000       Scroll Event
2017-09-06 23:57:53.775000       Scroll Event
2017-09-06 23:57:53.790000       Scroll Event
2017-09-06 23:57:53.807000       Scroll Event
2017-09-06 23:57:53.826000       Scroll Event
2017-09-06 23:57:54.048000       Scroll Event
2017-09-06 23:57:54.065000       Scroll Event
2017-09-06 23:57:54.082000       Scroll Event
2017-09-06 23:57:54.094000       Scroll Event
2017-09-06 23:57:54.262000       Post your answer button clicked
2017-09-06 23:57:54.714000       Scroll Event
2017-09-06 23:57:54.726000       Scroll Event
2017-09-06 23:57:54.743000       Scroll Event
2017-09-06 23:57:54.763000       Scroll Event
2017-09-06 23:57:54.778000       Scroll Event
2017-09-06 23:57:54.796000       Scroll Event
2017-09-06 23:57:55.017000       Scroll Event
2017-09-06 23:57:55.029000       Scroll Event
2017-09-06 23:57:55.046000       Scroll Event
2017-09-06 23:57:55.066000       Scroll Event
2017-09-06 23:57:55.081000       Scroll Event
2017-09-06 23:57:55.101000       Scroll Event
2017-09-06 23:57:55.321000       Scroll Event
2017-09-06 23:57:55.332000       Scroll Event
2017-09-06 23:57:55.351000       Scroll Event
2017-09-06 23:57:55.371000       Scroll Event
2017-09-06 23:57:55.384000       Scroll Event
2017-09-06 23:57:55.405000       Scroll Event
2017-09-06 23:57:55.625000       Scroll Event
2017-09-06 23:57:55.635000       Scroll Event
2017-09-06 23:57:55.656000       Scroll Event
2017-09-06 23:57:55.675000       Scroll Event
2017-09-06 23:57:55.689000       Scroll Event
2017-09-06 23:57:55.710000       Scroll Event
2017-09-06 23:57:55.929000       Scroll Event
2017-09-06 23:57:55.941000       Scroll Event
2017-09-06 23:57:55.959000       Scroll Event
2017-09-06 23:57:55.979000       Scroll Event
2017-09-06 23:57:55.993000       Scroll Event
2017-09-06 23:57:56.012000       Scroll Event
2017-09-06 23:57:56.232000       Scroll Event
2017-09-06 23:57:56.245000       Scroll Event
2017-09-06 23:57:56.263000       Scroll Event
2017-09-06 23:57:56.282000       Scroll Event
2017-09-06 23:57:56.297000       Scroll Event
2017-09-06 23:57:56.316000       Scroll Event
2017-09-06 23:57:56.536000       Scroll Event
2017-09-06 23:57:56.548000       Scroll Event
2017-09-06 23:57:56.566000       Scroll Event
2017-09-06 23:57:56.586000       Scroll Event
2017-09-06 23:57:56.602000       Scroll Event
2017-09-06 23:57:56.619000       Scroll Event
2017-09-06 23:57:56.954000       Scroll Event
2017-09-06 23:57:56.962000       Scroll Event
2017-09-06 23:57:56.978000       Scroll Event
2017-09-06 23:57:56.993000       Scroll Event
2017-09-06 23:57:57.010000       Scroll Event
2017-09-06 23:57:57.026000       Scroll Event
2017-09-06 23:57:57.259000       Scroll Event
2017-09-06 23:57:57.265000       Scroll Event
2017-09-06 23:57:57.281000       Scroll Event
2017-09-06 23:57:57.297000       Scroll Event
2017-09-06 23:57:57.314000       Scroll Event
2017-09-06 23:57:57.331000       Scroll Event
2017-09-06 23:57:57.562000       Scroll Event
2017-09-06 23:57:57.569000       Scroll Event
2017-09-06 23:57:57.584000       Scroll Event
2017-09-06 23:57:57.600000       Scroll Event
2017-09-06 23:57:57.617000       Scroll Event
2017-09-06 23:57:57.634000       Scroll Event
2017-09-06 23:57:57.866000       Scroll Event
2017-09-06 23:57:57.873000       Scroll Event
2017-09-06 23:57:57.888000       Scroll Event
2017-09-06 23:57:57.908000       Scroll Event
2017-09-06 23:57:57.923000       Scroll Event
2017-09-06 23:57:57.938000       Scroll Event
2017-09-06 23:57:58.189000       Scroll Event
2017-09-06 23:57:58.189000       Scroll Event
