2017-09-07 00:02:06.496000       Page with JAVA tag loaded with URL : https://stackoverflow.com/questions/tagged/java
2017-09-07 00:02:07.668000       Scroll Event
2017-09-07 00:02:07.675000       Scroll Event
2017-09-07 00:02:07.690000       Scroll Event
2017-09-07 00:02:07.714000       Scroll Event
2017-09-07 00:02:07.723000       Scroll Event
2017-09-07 00:02:07.743000       Scroll Event
2017-09-07 00:02:07.973000       Scroll Event
2017-09-07 00:02:07.979000       Scroll Event
2017-09-07 00:02:07.993000       Scroll Event
2017-09-07 00:02:08.019000       Scroll Event
2017-09-07 00:02:08.026000       Scroll Event
2017-09-07 00:02:08.046000       Scroll Event
2017-09-07 00:02:08.276000       Scroll Event
2017-09-07 00:02:08.284000       Scroll Event
2017-09-07 00:02:08.298000       Scroll Event
2017-09-07 00:02:08.322000       Scroll Event
2017-09-07 00:02:08.330000       Scroll Event
2017-09-07 00:02:08.351000       Scroll Event
2017-09-07 00:02:08.580000       Scroll Event
2017-09-07 00:02:08.589000       Scroll Event
2017-09-07 00:02:08.601000       Scroll Event
2017-09-07 00:02:08.627000       Scroll Event
2017-09-07 00:02:08.636000       Scroll Event
2017-09-07 00:02:08.655000       Scroll Event
2017-09-07 00:02:08.887000       Scroll Event
2017-09-07 00:02:08.892000       Scroll Event
2017-09-07 00:02:08.914000       Scroll Event
2017-09-07 00:02:08.932000       Scroll Event
2017-09-07 00:02:08.940000       Scroll Event
2017-09-07 00:02:23.108000       Upvote Event
2017-09-07 00:02:23.932000       Page with JAVA tag loaded with URL : https://stackoverflow.com/questions/46089721/convert-06-sep-2017-213451-format-to-milliseconds
2017-09-07 00:02:24.184000       Downvote Event
2017-09-07 00:02:25.350000       Share stackoverflow page clicked
2017-09-07 00:02:28.062000       Ask a question button clicked
2017-09-07 00:02:28.068000       Page Navigated away from : https://stackoverflow.com/questions/46089721/convert-06-sep-2017-213451-format-to-milliseconds
2017-09-07 00:02:30.213000       Scroll Event
2017-09-07 00:02:30.534000       Scroll Event
2017-09-07 00:02:30.546000       Scroll Event
2017-09-07 00:02:30.568000       Scroll Event
2017-09-07 00:02:30.582000       Scroll Event
2017-09-07 00:02:30.602000       Scroll Event
2017-09-07 00:02:30.619000       Scroll Event
2017-09-07 00:02:30.838000       Scroll Event
2017-09-07 00:02:30.849000       Scroll Event
2017-09-07 00:02:30.871000       Scroll Event
2017-09-07 00:02:30.886000       Scroll Event
2017-09-07 00:02:30.906000       Scroll Event
2017-09-07 00:02:30.923000       Scroll Event
2017-09-07 00:02:31.142000       Scroll Event
2017-09-07 00:02:31.154000       Scroll Event
2017-09-07 00:02:31.176000       Scroll Event
2017-09-07 00:02:31.191000       Scroll Event
2017-09-07 00:02:31.209000       Scroll Event
2017-09-07 00:02:31.228000       Scroll Event
2017-09-07 00:02:31.447000       Scroll Event
2017-09-07 00:02:31.461000       Scroll Event
2017-09-07 00:02:31.480000       Page with JAVA tag loaded with URL : https://stackoverflow.com/questions/46089721/convert-06-sep-2017-213451-format-to-milliseconds
2017-09-07 00:02:31.495000       Scroll Event
2017-09-07 00:02:31.513000       Scroll Event
2017-09-07 00:02:31.531000       Scroll Event
2017-09-07 00:02:31.750000       Scroll Event
2017-09-07 00:02:31.775000       Scroll Event
2017-09-07 00:02:31.783000       Scroll Event
2017-09-07 00:02:31.798000       Scroll Event
2017-09-07 00:02:31.816000       Scroll Event
2017-09-07 00:02:32.037000       Post your answer button clicked
2017-09-07 00:02:32.110000       Scroll Event
2017-09-07 00:02:32.282000       Scroll Event
2017-09-07 00:02:32.299000       Scroll Event
2017-09-07 00:02:32.316000       Scroll Event
2017-09-07 00:02:32.332000       Scroll Event
2017-09-07 00:02:32.348000       Scroll Event
2017-09-07 00:02:32.415000       Scroll Event
2017-09-07 00:02:32.586000       Scroll Event
2017-09-07 00:02:32.603000       Scroll Event
2017-09-07 00:02:32.619000       Scroll Event
2017-09-07 00:02:32.635000       Scroll Event
2017-09-07 00:02:32.651000       Scroll Event
2017-09-07 00:02:32.720000       Scroll Event
2017-09-07 00:02:32.890000       Scroll Event
2017-09-07 00:02:32.905000       Scroll Event
2017-09-07 00:02:32.923000       Scroll Event
2017-09-07 00:02:32.939000       Scroll Event
2017-09-07 00:02:32.955000       Scroll Event
2017-09-07 00:02:33.024000       Scroll Event
2017-09-07 00:02:33.195000       Scroll Event
2017-09-07 00:02:33.211000       Scroll Event
2017-09-07 00:02:33.228000       Scroll Event
2017-09-07 00:02:33.244000       Scroll Event
2017-09-07 00:02:33.260000       Scroll Event
2017-09-07 00:02:33.327000       Scroll Event
2017-09-07 00:02:33.499000       Scroll Event
2017-09-07 00:02:33.514000       Scroll Event
2017-09-07 00:02:33.532000       Scroll Event
2017-09-07 00:02:33.548000       Scroll Event
2017-09-07 00:02:33.565000       Scroll Event
2017-09-07 00:02:33.630000       Scroll Event
2017-09-07 00:02:33.804000       Scroll Event
2017-09-07 00:02:33.817000       Scroll Event
2017-09-07 00:02:33.836000       Scroll Event
2017-09-07 00:02:33.852000       Scroll Event
2017-09-07 00:02:33.869000       Scroll Event
2017-09-07 00:02:33.934000       Scroll Event
2017-09-07 00:02:34.108000       Scroll Event
2017-09-07 00:02:34.121000       Scroll Event
2017-09-07 00:02:34.141000       Scroll Event
2017-09-07 00:02:34.156000       Scroll Event
2017-09-07 00:02:34.172000       Scroll Event
2017-09-07 00:02:34.641000       Page with JAVA tag loaded with URL : https://stackoverflow.com/questions/tagged/java
2017-09-07 00:02:35.870000       Scroll Event
2017-09-07 00:02:36.178000       Scroll Event
2017-09-07 00:02:36.185000       Scroll Event
2017-09-07 00:02:36.201000       Scroll Event
2017-09-07 00:02:36.220000       Scroll Event
2017-09-07 00:02:36.235000       Scroll Event
2017-09-07 00:02:36.253000       Scroll Event
2017-09-07 00:02:36.484000       Scroll Event
2017-09-07 00:02:36.488000       Scroll Event
2017-09-07 00:02:36.506000       Scroll Event
2017-09-07 00:02:36.524000       Scroll Event
2017-09-07 00:02:36.539000       Scroll Event
2017-09-07 00:02:36.556000       Scroll Event
2017-09-07 00:02:36.789000       Scroll Event
2017-09-07 00:02:36.793000       Scroll Event
2017-09-07 00:02:36.810000       Scroll Event
2017-09-07 00:02:36.831000       Scroll Event
2017-09-07 00:02:36.844000       Scroll Event
2017-09-07 00:02:36.861000       Scroll Event
2017-09-07 00:02:37.093000       Scroll Event
2017-09-07 00:02:37.097000       Scroll Event
2017-09-07 00:02:37.114000       Scroll Event
2017-09-07 00:02:37.136000       Scroll Event
2017-09-07 00:02:37.147000       Scroll Event
2017-09-07 00:02:37.165000       Scroll Event
2017-09-07 00:02:37.398000       Scroll Event
2017-09-07 00:02:37.402000       Scroll Event
2017-09-07 00:02:37.420000       Scroll Event
2017-09-07 00:02:37.439000       Scroll Event
2017-09-07 00:02:37.452000       Scroll Event
2017-09-07 00:02:37.468000       Scroll Event
2017-09-07 00:02:37.714000       Scroll Event
2017-09-07 00:02:37.714000       Scroll Event
2017-09-07 00:02:37.731000       Scroll Event
2017-09-07 00:02:37.747000       Scroll Event
2017-09-07 00:02:37.762000       Scroll Event
2017-09-07 00:02:37.773000       Scroll Event
2017-09-07 00:02:38.019000       Scroll Event
2017-09-07 00:02:38.024000       Scroll Event
2017-09-07 00:02:38.035000       Scroll Event
2017-09-07 00:02:38.051000       Scroll Event
2017-09-07 00:02:38.068000       Scroll Event
2017-09-07 00:02:38.076000       Scroll Event
2017-09-07 00:02:38.323000       Scroll Event
2017-09-07 00:02:38.329000       Scroll Event
2017-09-07 00:02:38.342000       Scroll Event
2017-09-07 00:02:38.355000       Scroll Event
2017-09-07 00:02:38.372000       Scroll Event
2017-09-07 00:02:38.380000       Scroll Event
2017-09-07 00:02:38.630000       Scroll Event
2017-09-07 00:02:38.630000       Scroll Event
2017-09-07 00:02:38.648000       Scroll Event
2017-09-07 00:02:38.660000       Scroll Event
2017-09-07 00:02:38.676000       Scroll Event
2017-09-07 00:02:38.685000       Scroll Event
2017-09-07 00:02:38.947000       Scroll Event
2017-09-07 00:02:38.978000       Add to favourite tags clicked
2017-09-07 00:02:40.161000       Scroll Event
2017-09-07 00:02:40.472000       Scroll Event
2017-09-07 00:02:40.488000       Scroll Event
2017-09-07 00:02:40.506000       Scroll Event
2017-09-07 00:02:40.522000       Scroll Event
2017-09-07 00:02:40.540000       Scroll Event
2017-09-07 00:02:40.556000       Scroll Event
2017-09-07 00:02:40.776000       Scroll Event
2017-09-07 00:02:40.803000       Scroll Event
2017-09-07 00:02:40.818000       Scroll Event
2017-09-07 00:02:43.514000       Page Navigated away from : https://stackoverflow.com/questions/tagged/java
2017-09-07 00:02:44.600000       Page with JAVA tag loaded with URL : https://stackoverflow.com/questions/46089879/is-there-a-way-i-could-enhance-the-functionality-of-a-service-on-a-fly-basis
2017-09-07 00:02:45.201000       Share stackoverflow page clicked
