2017-09-07 08:26:39.385000       Page with JAVA tag loaded with URL : https://stackoverflow.com/questions/tagged/java
2017-09-07 08:26:47.392000       Add to favourite tags clicked
2017-09-07 08:26:49.047000       Ask a question button clicked
2017-09-07 08:26:49.352000       Page Navigated away from : https://stackoverflow.com/questions/tagged/java
2017-09-07 08:26:51.805000       Page with JAVA tag loaded with URL : https://stackoverflow.com/questions/tagged/java
2017-09-07 08:26:52.761000       Scroll Event
2017-09-07 08:26:52.779000       Scroll Event
2017-09-07 08:26:52.797000       Scroll Event
2017-09-07 08:26:52.809000       Scroll Event
2017-09-07 08:26:52.838000       Scroll Event
2017-09-07 08:26:52.853000       Scroll Event
2017-09-07 08:26:53.066000       Scroll Event
2017-09-07 08:26:53.085000       Scroll Event
2017-09-07 08:26:53.103000       Scroll Event
2017-09-07 08:26:53.114000       Scroll Event
2017-09-07 08:26:53.147000       Scroll Event
2017-09-07 08:26:53.163000       Scroll Event
2017-09-07 08:26:53.376000       Scroll Event
2017-09-07 08:26:53.392000       Scroll Event
2017-09-07 08:26:53.407000       Scroll Event
2017-09-07 08:26:53.420000       Scroll Event
2017-09-07 08:26:53.456000       Scroll Event
2017-09-07 08:26:53.472000       Scroll Event
2017-09-07 08:26:53.685000       Scroll Event
2017-09-07 08:26:53.700000       Scroll Event
2017-09-07 08:26:53.716000       Scroll Event
2017-09-07 08:26:53.727000       Scroll Event
2017-09-07 08:26:53.761000       Scroll Event
2017-09-07 08:26:53.779000       Scroll Event
2017-09-07 08:26:53.994000       Scroll Event
2017-09-07 08:26:54.008000       Scroll Event
2017-09-07 08:26:54.025000       Scroll Event
2017-09-07 08:26:54.033000       Scroll Event
2017-09-07 08:26:54.064000       Scroll Event
2017-09-07 08:27:02.078000       Page Navigated away from : https://stackoverflow.com/questions/tagged/java
2017-09-07 08:27:02.972000       Page with JAVA tag loaded with URL : https://stackoverflow.com/questions/46100015/how-to-train-neural-network-using-cuckoo-search-in-java
2017-09-07 08:27:03.500000       Share stackoverflow page clicked
2017-09-07 08:27:06.183000       Ask a question button clicked
2017-09-07 08:27:06.186000       Page Navigated away from : https://stackoverflow.com/questions/46100015/how-to-train-neural-network-using-cuckoo-search-in-java
2017-09-07 08:27:08.426000       Scroll Event
2017-09-07 08:27:08.755000       Scroll Event
2017-09-07 08:27:08.771000       Scroll Event
2017-09-07 08:27:08.783000       Scroll Event
2017-09-07 08:27:08.797000       Scroll Event
2017-09-07 08:27:08.812000       Scroll Event
2017-09-07 08:27:08.833000       Scroll Event
2017-09-07 08:27:09.065000       Scroll Event
2017-09-07 08:27:09.079000       Scroll Event
2017-09-07 08:27:09.090000       Scroll Event
2017-09-07 08:27:09.105000       Scroll Event
2017-09-07 08:27:09.120000       Scroll Event
2017-09-07 08:27:09.143000       Scroll Event
2017-09-07 08:27:10.795000       Post your answer button clicked
2017-09-07 08:27:10.980000       Scroll Event
2017-09-07 08:27:11.030000       Scroll Event
2017-09-07 08:27:11.047000       Scroll Event
2017-09-07 08:27:11.050000       Scroll Event
2017-09-07 08:27:11.064000       Scroll Event
2017-09-07 08:27:11.105000       Scroll Event
2017-09-07 08:27:11.287000       Scroll Event
2017-09-07 08:27:11.334000       Scroll Event
2017-09-07 08:27:11.352000       Scroll Event
2017-09-07 08:27:11.358000       Scroll Event
2017-09-07 08:27:11.370000       Scroll Event
2017-09-07 08:27:11.410000       Scroll Event
2017-09-07 08:27:11.597000       Scroll Event
2017-09-07 08:27:11.638000       Scroll Event
2017-09-07 08:27:11.662000       Scroll Event
2017-09-07 08:27:11.670000       Scroll Event
2017-09-07 08:27:11.683000       Scroll Event
2017-09-07 08:27:11.716000       Scroll Event
2017-09-07 08:27:11.907000       Scroll Event
2017-09-07 08:27:11.943000       Scroll Event
2017-09-07 08:27:11.973000       Scroll Event
2017-09-07 08:27:11.985000       Scroll Event
2017-09-07 08:27:11.997000       Scroll Event
2017-09-07 08:27:12.022000       Scroll Event
2017-09-07 08:27:12.214000       Scroll Event
2017-09-07 08:27:12.248000       Scroll Event
2017-09-07 08:27:12.285000       Scroll Event
2017-09-07 08:27:12.297000       Scroll Event
2017-09-07 08:27:12.307000       Scroll Event
2017-09-07 08:27:12.330000       Scroll Event
2017-09-07 08:27:12.523000       Scroll Event
2017-09-07 08:27:12.555000       Scroll Event
2017-09-07 08:27:12.593000       Scroll Event
2017-09-07 08:27:12.603000       Scroll Event
2017-09-07 08:27:12.613000       Scroll Event
2017-09-07 08:27:12.635000       Scroll Event
2017-09-07 08:27:12.828000       Scroll Event
2017-09-07 08:27:13.111000       Upvote Event
2017-09-07 08:27:13.581000       Downvote Event
2017-09-07 08:27:13.835000       Upvote Event
2017-09-07 08:27:14.621000       Downvote Event
2017-09-07 08:27:15       Scroll Event
2017-09-07 08:27:15.317000       Scroll Event
2017-09-07 08:27:15.332000       Scroll Event
2017-09-07 08:27:15.349000       Scroll Event
2017-09-07 08:27:15.367000       Scroll Event
2017-09-07 08:27:15.385000       Scroll Event
2017-09-07 08:27:15.400000       Scroll Event
2017-09-07 08:27:15.623000       Scroll Event
2017-09-07 08:27:15.637000       Scroll Event
2017-09-07 08:27:15.653000       Scroll Event
2017-09-07 08:27:15.670000       Scroll Event
2017-09-07 08:27:15.689000       Scroll Event
2017-09-07 08:27:15.703000       Scroll Event
2017-09-07 08:27:15.927000       Scroll Event
2017-09-07 08:27:15.940000       Scroll Event
