2017-09-07 11:23:14.121000       Page with JAVA tag loaded with URL : https://stackoverflow.com/questions/tagged/java
2017-09-07 11:23:15.258000       Scroll Event
2017-09-07 11:23:15.278000       Scroll Event
2017-09-07 11:23:15.300000       Scroll Event
2017-09-07 11:23:15.313000       Scroll Event
2017-09-07 11:23:15.328000       Scroll Event
2017-09-07 11:23:15.346000       Scroll Event
2017-09-07 11:23:15.563000       Scroll Event
2017-09-07 11:23:15.584000       Scroll Event
2017-09-07 11:23:15.608000       Scroll Event
2017-09-07 11:23:15.616000       Scroll Event
2017-09-07 11:23:15.631000       Scroll Event
2017-09-07 11:23:15.651000       Scroll Event
2017-09-07 11:23:15.870000       Scroll Event
2017-09-07 11:23:15.893000       Scroll Event
2017-09-07 11:23:15.914000       Scroll Event
2017-09-07 11:23:15.923000       Scroll Event
2017-09-07 11:23:15.957000       Scroll Event
2017-09-07 11:23:16.273000       Add to favourite tags clicked
2017-09-07 11:23:17.097000       Scroll Event
2017-09-07 11:23:17.111000       Scroll Event
2017-09-07 11:23:17.125000       Scroll Event
2017-09-07 11:23:17.137000       Scroll Event
2017-09-07 11:23:17.151000       Scroll Event
2017-09-07 11:23:17.162000       Scroll Event
2017-09-07 11:23:17.405000       Scroll Event
2017-09-07 11:23:17.415000       Scroll Event
2017-09-07 11:23:17.434000       Scroll Event
2017-09-07 11:23:17.446000       Scroll Event
2017-09-07 11:23:17.462000       Scroll Event
2017-09-07 11:23:18.761000       Page Navigated away from : https://stackoverflow.com/questions/tagged/java
2017-09-07 11:23:20.050000       Page with JAVA tag loaded with URL : https://stackoverflow.com/questions/46102795/tool-to-manage-and-execute-workflows-in-combination-with-apache-camel
2017-09-07 11:23:20.877000       Share stackoverflow page clicked
2017-09-07 11:23:22.462000       Upvote Event
2017-09-07 11:23:22.901000       Downvote Event
2017-09-07 11:23:23.778000       Upvote Event
2017-09-07 11:23:24.127000       Downvote Event
2017-09-07 11:23:25.055000       Scroll Event
2017-09-07 11:23:25.071000       Scroll Event
2017-09-07 11:23:25.088000       Scroll Event
2017-09-07 11:23:25.106000       Scroll Event
2017-09-07 11:23:25.121000       Scroll Event
2017-09-07 11:23:25.137000       Scroll Event
2017-09-07 11:23:25.359000       Scroll Event
2017-09-07 11:23:25.376000       Scroll Event
2017-09-07 11:23:25.394000       Scroll Event
2017-09-07 11:23:25.410000       Scroll Event
2017-09-07 11:23:25.424000       Scroll Event
2017-09-07 11:23:25.440000       Scroll Event
2017-09-07 11:23:25.664000       Scroll Event
2017-09-07 11:23:25.681000       Scroll Event
2017-09-07 11:23:25.700000       Scroll Event
2017-09-07 11:23:25.715000       Scroll Event
2017-09-07 11:23:25.728000       Scroll Event
2017-09-07 11:23:25.744000       Scroll Event
2017-09-07 11:23:25.970000       Scroll Event
2017-09-07 11:23:25.987000       Scroll Event
2017-09-07 11:23:26.005000       Scroll Event
2017-09-07 11:23:26.020000       Scroll Event
2017-09-07 11:23:26.031000       Scroll Event
2017-09-07 11:23:26.047000       Scroll Event
2017-09-07 11:23:26.273000       Scroll Event
2017-09-07 11:23:26.291000       Scroll Event
2017-09-07 11:23:26.309000       Scroll Event
2017-09-07 11:23:26.323000       Scroll Event
2017-09-07 11:23:26.337000       Scroll Event
2017-09-07 11:23:26.354000       Scroll Event
2017-09-07 11:23:26.578000       Scroll Event
2017-09-07 11:23:26.595000       Scroll Event
2017-09-07 11:23:26.613000       Scroll Event
2017-09-07 11:23:26.628000       Scroll Event
2017-09-07 11:23:26.641000       Scroll Event
2017-09-07 11:23:26.658000       Scroll Event
2017-09-07 11:23:26.889000       Scroll Event
2017-09-07 11:23:26.904000       Scroll Event
2017-09-07 11:23:26.920000       Scroll Event
2017-09-07 11:23:26.934000       Scroll Event
2017-09-07 11:23:26.945000       Scroll Event
2017-09-07 11:23:26.963000       Scroll Event
2017-09-07 11:23:27.200000       Scroll Event
2017-09-07 11:23:27.213000       Scroll Event
2017-09-07 11:23:27.225000       Scroll Event
2017-09-07 11:23:27.239000       Scroll Event
2017-09-07 11:23:27.310000       Post your answer button clicked
2017-09-07 11:23:27.445000       Scroll Event
2017-09-07 11:23:27.625000       Scroll Event
2017-09-07 11:23:27.643000       Scroll Event
2017-09-07 11:23:27.658000       Scroll Event
2017-09-07 11:23:27.676000       Scroll Event
2017-09-07 11:23:27.694000       Scroll Event
2017-09-07 11:23:27.751000       Scroll Event
2017-09-07 11:23:27.929000       Scroll Event
2017-09-07 11:23:27.954000       Scroll Event
2017-09-07 11:23:27.963000       Scroll Event
2017-09-07 11:23:27.983000       Scroll Event
2017-09-07 11:23:27.999000       Scroll Event
2017-09-07 11:23:28.061000       Scroll Event
2017-09-07 11:23:28.237000       Scroll Event
2017-09-07 11:23:28.261000       Scroll Event
2017-09-07 11:23:28.270000       Scroll Event
2017-09-07 11:23:28.290000       Scroll Event
2017-09-07 11:23:28.308000       Scroll Event
2017-09-07 11:23:28.371000       Scroll Event
2017-09-07 11:23:28.542000       Scroll Event
2017-09-07 11:23:28.565000       Scroll Event
2017-09-07 11:23:28.576000       Scroll Event
2017-09-07 11:23:28.595000       Scroll Event
2017-09-07 11:23:28.616000       Scroll Event
2017-09-07 11:23:28.683000       Scroll Event
2017-09-07 11:23:28.846000       Scroll Event
2017-09-07 11:23:28.870000       Scroll Event
2017-09-07 11:23:28.879000       Scroll Event
2017-09-07 11:23:28.900000       Scroll Event
2017-09-07 11:23:28.925000       Scroll Event
2017-09-07 11:23:28.994000       Scroll Event
2017-09-07 11:23:29.155000       Scroll Event
2017-09-07 11:23:29.176000       Scroll Event
2017-09-07 11:23:29.186000       Scroll Event
2017-09-07 11:23:29.204000       Scroll Event
2017-09-07 11:23:29.228000       Scroll Event
2017-09-07 11:23:29.297000       Scroll Event
2017-09-07 11:23:29.467000       Scroll Event
2017-09-07 11:23:29.482000       Scroll Event
2017-09-07 11:23:29.491000       Scroll Event
2017-09-07 11:23:29.508000       Scroll Event
2017-09-07 11:23:29.532000       Scroll Event
2017-09-07 11:23:29.608000       Scroll Event
2017-09-07 11:23:29.774000       Scroll Event
2017-09-07 11:23:29.790000       Scroll Event
2017-09-07 11:23:29.795000       Scroll Event
2017-09-07 11:23:29.814000       Scroll Event
2017-09-07 11:23:29.835000       Scroll Event
2017-09-07 11:23:29.915000       Scroll Event
2017-09-07 11:23:30.078000       Scroll Event
2017-09-07 11:23:30.095000       Scroll Event
2017-09-07 11:23:30.100000       Scroll Event
2017-09-07 11:23:30.119000       Scroll Event
2017-09-07 11:23:30.141000       Scroll Event
2017-09-07 11:23:30.219000       Scroll Event
2017-09-07 11:23:30.388000       Ask a question button clicked
2017-09-07 11:23:30.406000       Page Navigated away from : https://stackoverflow.com/questions/46102795/tool-to-manage-and-execute-workflows-in-combination-with-apache-camel
2017-09-07 11:23:32.665000       Page with JAVA tag loaded with URL : https://stackoverflow.com/questions/46102795/tool-to-manage-and-execute-workflows-in-combination-with-apache-camel
2017-09-07 11:23:32.916000       Ask a question button clicked
2017-09-07 11:23:32.947000       Page Navigated away from : https://stackoverflow.com/questions/46102795/tool-to-manage-and-execute-workflows-in-combination-with-apache-camel
2017-09-07 11:23:34.523000       Page with JAVA tag loaded with URL : https://stackoverflow.com/questions/46102795/tool-to-manage-and-execute-workflows-in-combination-with-apache-camel
2017-09-07 11:23:35.693000       Share stackoverflow page clicked
2017-09-07 11:23:36.792000       Upvote Event
2017-09-07 11:23:37.631000       Downvote Event
